ModelNumber,ProductCode,Series,ImpleID,TempID,KitID,BeamAngleID,ColorID,Power(W),Tier1,Tier2,MSRP,SpecSheet,Reflector/SurFace,WhiteHousing,AirTight,Cover,Glass,0te1,0te2
Bianca-24W-BI18-40K-W20-RD-AT,29897039,B,I3,LO,RT,AA,COL01,24,309,327,542,,,,1,,,24W ,Round Air Tight Trim
Bianca-24W-BI18-40K-W40-RD-AT,29896970,B,I4,LO,RT,BB,COL01,24,309,327,542,,,,1,,,24W ,Round Air Tight Trim
Bianca-24W-BI27-65K-W20-RD-AT,29896973,B,I1,HI,RT,AA,COL01,24,309,327,542,,,,1,,,24W ,Round Air Tight Trim
Bianca-24W-BI27-65K-W40-RD-AT,29896976,B,I4,HI,RT,BB,COL01,24,309,327,542,,,,1,,,24W ,Round Air Tight Trim
Bianca-24W-BI18-40K-W20-SQ-AT,29896979,B,I3,LO,ST,AA,COL01,24,309,322,542,,,,1,,,24W ,Square Air Tight Trim
Bianca-24W-BI18-40K-W40-SQ-AT,29896982,B,I3,LO,ST,BB,COL01,24,309,322,542,,,,1,,,24W ,Square Air Tight Trim
Bianca-24W-BI27-65K-W20-SQ-AT,29896985,B,I3,HI,ST,AA,COL01,24,309,322,542,,,,1,,,24W ,Square Air Tight Trim
Bianca-24W-BI27-65K-W40-SQ-AT,29896988,B,I2,HI,ST,BB,COL01,24,309,322,542,,,,1,,,24W ,Square Air Tight Trim
Bianca-24W-BI18-40K-W20-RD-OP-TL,29897015,B,I3,LO,RL,AA,COL02,24,319,327,552,,,,0,,,24W ,Trimless
Bianca-24W-BI18-40K-W40-RD-OP-TL,29897018,B,I3,LO,RL,BB,COL02,24,319,327,552,,,,0,,,24W ,Trimless
Bianca-24W-BI27-65K-W20-RD-OP-TL,29897021,B,I3,HI,RL,AA,COL02,24,319,327,552,,,,0,,,24W ,Trimless
Bianca-24W-BI27-65K-W40-RD-OP-TL,29897024,B,I3,HI,RL,BB,COL02,24,319,327,552,,,,0,,,24W ,Trimless
Bianca-24W-BI18-40K-W20-RDR-AT,29897027,B,I5,LO,RT,AA,COL01,24,324,332,562,,,,1,,,24W ,Trim
Bianca-24W-BI18-40K-W40-RDR-AT,29897030,B,I5,LO,RT,BB,COL01,24,324,332,562,,,,1,,,24W ,Trim
Bianca-24W-BI27-65K-W20-RDR-AT,29897033,B,I1,HI,RT,AA,COL01,24,324,332,562,,,,1,,,24W ,Trim
Bianca-24W-BI27-65K-W40-RDR-AT,29897036,B,I2,HI,RT,BB,COL01,24,324,332,562,,,,1,,,24W ,Trim
Bianca-24W-BI18-40K-W20-RD-PDT,29897042,B,I2,LO,PF,AA,COL01,24,309,322,542,,,,0,,,24W ,Pendant fixture
Bianca-24W-BI18-40K-W40-RD-PDT,29897045,B,I5,LO,PF,BB,COL01,24,309,322,542,,,,0,,,24W ,Pendant fixture
Bianca-24W-BI27-65K-W20-RD-PDT,29897048,B,I5,HI,PF,AA,COL01,24,309,322,542,,,,0,,,24W ,Pendant fixture
Bianca-24W-BI27-65K-W40-RD-PDT,29897051,B,I5,HI,PF,BB,COL01,24,309,322,542,,,,0,,,24W ,Pendant fixture
S-200-11-11-9W-BR18-40K-40,59896946,S,I2,LO,RT,BB,COL04,9,309,322,547,,White Reflector,,0,,,9W - White Round Trim,White Round Adjustable Trim
S-200-11-11-9W-BR18-40K-20,59896949,S,I5,LO,RT,AA,COL04,9,309,322,547,,White Reflector,,0,,,9W - White Round Trim,White Round Adjustable Trim
S-200-11-11-9W-BR27-65K-40,59896952,S,I4,HI,RT,BB,COL04,9,309,322,547,,White Reflector,,0,,,9W - White Round Trim,White Round Adjustable Trim
S-200-11-11-9W-BR27-65K-20,59896955,S,I1,HI,RT,AA,COL04,9,309,322,547,,White Reflector,,0,,,9W - White Round Trim,White Round Adjustable Trim
S-300-11-11-9W-BR18-40K-40,59896958,S,I2,LO,RT,BB,COL04,9,309,322,547,,White Reflector,,0,,,9W - White Round Trim,White Round Fixed Trim with White Reflector
S-300-11-11-9W-BR18-40K-20,59896961,S,I1,LO,RT,AA,COL04,9,309,322,547,,White Reflector,,0,,,9W - White Round Trim,White Round Fixed Trim with White Reflector
S-300-11-11-9W-BR27-65K-40,59896964,S,I1,HI,RT,BB,COL04,9,309,322,547,,White Reflector,,0,,,9W - White Round Trim,White Round Fixed Trim with White Reflector
S-300-11-11-9W-BR27-65K-20,59896967,S,I3,HI,RT,AA,COL04,9,309,322,547,,White Reflector,,0,,,9W - White Round Trim,White Round Fixed Trim with White Reflector
S-300-11-05-9W-BR18-40K-40,59896970,S,I4,LO,RT,BB,COL04,9,309,322,547,,Chrome Reflector,,0,,,9W - White Round Trim,White Round Fixed Trim with Chrome Reflector
S-300-11-05-9W-BR18-40K-20,59896973,S,I5,LO,RT,AA,COL04,9,309,322,547,,Chrome Reflector,,0,,,9W - White Round Trim,White Round Fixed Trim with Chrome Reflector
S-300-11-05-9W-BR27-65K-40,59896976,S,I5,HI,RT,BB,COL04,9,309,322,547,,Chrome Reflector,,0,,,9W - White Round Trim,White Round Fixed Trim with Chrome Reflector
S-300-11-05-9W-BR27-65K-20,59896979,S,I2,HI,RT,AA,COL04,9,309,322,547,,Chrome Reflector,,0,,,9W - White Round Trim,White Round Fixed Trim with Chrome Reflector
S-340-11-11-9W-BR18-40K-40,59896982,S,I1,LO,RT,BB,COL04,9,309,322,547,,White Slanted Reflector,,0,,,9W - White Round Trim,Round Adjustable Bulb with White Reflector
S-340-11-11-9W-BR18-40K-20,59896985,S,I1,LO,RT,AA,COL04,9,309,322,547,,White Slanted Reflector,,0,,,9W - White Round Trim,Round Adjustable Bulb with White Reflector
S-340-11-11-9W-BR27-65K-40,59896988,S,I4,HI,RT,BB,COL04,9,309,322,547,,White Slanted Reflector,,0,,,9W - White Round Trim,Round Adjustable Bulb with White Reflector
S-340-11-11-9W-BR27-65K-20,59896991,S,I3,HI,RT,AA,COL04,9,309,322,547,,White Slanted Reflector,,0,,,9W - White Round Trim,Round Adjustable Bulb with White Reflector
S-340-11-05-9W-BR18-40K-40,59896994,S,I2,LO,RT,BB,COL04,9,309,322,547,,Slanted Reflector,,0,,,9W - White Round Trim,Round Adjustable Bulb with Chrome Reflector
S-340-11-05-9W-BR18-40K-20,59896997,S,I5,LO,RT,AA,COL04,9,309,322,547,,Slanted Reflector,,0,,,9W - White Round Trim,Round Adjustable Bulb with Chrome Reflector
S-340-11-05-9W-BR27-65K-40,59897000,S,I1,HI,RT,BB,COL04,9,309,322,547,,Slanted Reflector,,0,,,9W - White Round Trim,Round Adjustable Bulb with Chrome Reflector
S-340-11-05-9W-BR27-65K-20,59897003,S,I1,HI,RT,AA,COL04,9,309,322,547,,Slanted Reflector,,0,,,9W - White Round Trim,Round Adjustable Bulb with Chrome Reflector
S-350-11-9W-BR18-40K-40,59897006,S,I5,LO,RT,BB,COL04,9,309,322,547,,Flat Round Surface,,0,,,9W - White Round Trim,Round Adjustable bulb with Surface Trim
S-350-11-9W-BR18-40K-20,59897009,S,I5,LO,RT,AA,COL04,9,309,322,547,,Flat Round Surface,,0,,,9W - White Round Trim,Round Adjustable bulb with Surface Trim
S-350-11-9W-BR27-65K-40,59897012,S,I3,HI,RT,BB,COL04,9,309,322,547,,Flat Round Surface,,0,,,9W - White Round Trim,Round Adjustable bulb with Surface Trim
S-350-11-9W-BR27-65K-20,59897015,S,I4,HI,RT,AA,COL04,9,309,322,547,,Flat Round Surface,,0,,,9W - White Round Trim,Round Adjustable bulb with Surface Trim
S-360-11-9W-BR18-40K-40,59897018,S,I4,LO,RT,BB,COL04,9,309,322,547,,Flat Oval Surface,,0,,,9W - White Round Trim,Round Adjustable Bulb with Chrome Reflector
S-360-11-9W-BR18-40K-20,59897021,S,I4,LO,RT,AA,COL04,9,309,322,547,,Flat Oval Surface,,0,,,9W - White Round Trim,Round Adjustable Bulb with Chrome Reflector
S-360-11-9W-BR27-65K-40,59897024,S,I4,HI,RT,BB,COL04,9,309,322,547,,Flat Oval Surface,,0,,,9W - White Round Trim,Round Adjustable Bulb with Chrome Reflector
S-360-11-9W-BR27-65K-20,59897027,S,I1,HI,RT,AA,COL04,9,309,322,547,,Flat Oval Surface,,0,,,9W - White Round Trim,Round Adjustable Bulb with Chrome Reflector
S-300-11-11-TL-9W-BR18-40K-40,59897030,S,I2,LO,RL,BB,COL04,9,309,322,547,,Chrome Reflector,,0,,,9W - White Round Trimless,White Round Fixed Trim with White Reflector
S-300-11-11-TL-9W-BR18-40K-20,59897033,S,I3,LO,RL,AA,COL04,9,309,322,547,,Chrome Reflector,,0,,,9W - White Round Trimless,White Round Fixed Trim with White Reflector
S-300-11-11-TL-9W-BR27-65K-40,59897036,S,I3,HI,RL,BB,COL04,9,309,322,547,,Chrome Reflector,,0,,,9W - White Round Trimless,White Round Fixed Trim with White Reflector
S-300-11-11-TL-9W-BR27-65K-20,59897039,S,I1,HI,RL,AA,COL04,9,309,322,547,,Chrome Reflector,,0,,,9W - White Round Trimless,White Round Fixed Trim with White Reflector
S-300-11-05-TL-9W-BR18-40K-40,59897042,S,I5,LO,RL,BB,COL04,9,309,322,547,,Chrome Reflector,,0,,,9W - White Round Trimless,White Round Fixed Trim with Chrome Reflector
S-300-11-05-TL-9W-BR18-40K-20,59897045,S,I5,LO,RL,AA,COL04,9,309,322,547,,Chrome Reflector,,0,,,9W - White Round Trimless,White Round Fixed Trim with Chrome Reflector
S-300-11-05-TL-9W-BR27-65K-40,59897048,S,I1,HI,RL,BB,COL04,9,309,322,547,,Chrome Reflector,,0,,,9W - White Round Trimless,White Round Fixed Trim with Chrome Reflector
S-300-11-05-TL-9W-BR27-65K-20,59897051,S,I3,HI,RL,AA,COL04,9,309,322,547,,Chrome Reflector,,0,,,9W - White Round Trimless,White Round Fixed Trim with Chrome Reflector
S-340-11-11-TL-9W-BR18-40K-40,59897054,S,I5,LO,RL,BB,COL04,9,309,322,547,,White Slanted Reflector,,0,,,9W - White Round Trimless,Round Adjustable Bulb with White Reflector
S-340-11-11-TL-9W-BR18-40K-20,59897057,S,I5,LO,RL,AA,COL04,9,309,322,547,,White Slanted Reflector,,0,,,9W - White Round Trimless,Round Adjustable Bulb with White Reflector
S-340-11-11-TL-9W-BR27-65K-40,59897060,S,I4,HI,RL,BB,COL04,9,309,322,547,,White Slanted Reflector,,0,,,9W - White Round Trimless,Round Adjustable Bulb with White Reflector
S-340-11-11-TL-9W-BR27-65K-20,59897063,S,I2,HI,RL,AA,COL04,9,309,322,547,,White Slanted Reflector,,0,,,9W - White Round Trimless,Round Adjustable Bulb with White Reflector
S-340-11-05-TL-9W-BR18-40K-40,59897066,S,I4,LO,RL,BB,COL04,9,309,322,547,,Chrome Slanted Reflector,,0,,,9W - White Round Trimless,Round Adjustable Bulb with Chrome Reflector
S-340-11-05-TL-9W-BR18-40K-20,59897069,S,I4,LO,RL,AA,COL04,9,309,322,547,,Chrome Slanted Reflector,,0,,,9W - White Round Trimless,Round Adjustable Bulb with Chrome Reflector
S-340-11-05-TL-9W-BR27-65K-40,59897072,S,I2,HI,RL,BB,COL04,9,309,322,547,,Chrome Slanted Reflector,,0,,,9W - White Round Trimless,Round Adjustable Bulb with Chrome Reflector
S-340-11-05-TL-9W-BR27-65K-20,59897075,S,I4,HI,RL,AA,COL04,9,309,322,547,,Chrome Slanted Reflector,,0,,,9W - White Round Trimless,Round Adjustable Bulb with Chrome Reflector
S-350-11-TL-9W-BR18-40K-40,59897078,S,I4,LO,RL,BB,COL04,9,309,322,547,,Flat Round Surface,,0,,,9W - White Round Trimless,Round Adjustable Bulb with Surface Trim
S-350-11-TL-9W-BR18-40K-20,59897081,S,I1,LO,RL,AA,COL04,9,309,322,547,,Flat Round Surface,,0,,,9W - White Round Trimless,Round Adjustable Bulb with Surface Trim
S-350-11-TL-9W-BR27-65K-40,59897084,S,I2,HI,RL,BB,COL04,9,309,322,547,,Flat Round Surface,,0,,,9W - White Round Trimless,Round Adjustable Bulb with Surface Trim
S-350-11-TL-9W-BR27-65K-20,59897087,S,I4,HI,RL,AA,COL04,9,309,322,547,,Flat Round Surface,,0,,,9W - White Round Trimless,Round Adjustable Bulb with Surface Trim
S-360-11-TL-9W-BR18-40K-40,59897090,S,I1,LO,RL,BB,COL04,9,309,322,547,,Flat Oval Surface,,0,,,9W - White Round Trimless,Round Adjustable Bulb with Chrome Reflector
S-360-11-TL-9W-BR18-40K-20,59897093,S,I2,LO,RL,AA,COL04,9,309,322,547,,Flat Oval Surface,,0,,,9W - White Round Trimless,Round Adjustable Bulb with Chrome Reflector
S-360-11-TL-9W-BR27-65K-40,59897096,S,I3,HI,RL,BB,COL04,9,309,322,547,,Flat Oval Surface,,0,,,9W - White Round Trimless,Round Adjustable Bulb with Chrome Reflector
S-360-11-TL-9W-BR27-65K-20,59897099,S,I5,HI,RL,AA,COL04,9,309,322,547,,Flat Oval Surface,,0,,,9W - White Round Trimless,Round Adjustable Bulb with Chrome Reflector
S-500-11-11-9W-BR18-40K-40,59897102,S,I5,LO,ST,BB,COL04,9,314,332,557,,White Reflector,,0,,,9W - Square Trim,Square Fixed Trim With White Reflector
S-500-11-11-9W-BR18-40K-20,59897105,S,I2,LO,ST,AA,COL04,9,314,332,557,,White Reflector,,0,,,9W - Square Trim,Square Fixed Trim With White Reflector
S-500-11-11-9W-BR27-65K-40,59897108,S,I5,HI,ST,BB,COL04,9,314,332,557,,White Reflector,,0,,,9W - Square Trim,Square Fixed Trim With White Reflector
S-500-11-11-9W-BR27-65K-20,59897111,S,I1,HI,ST,AA,COL04,9,314,332,557,,White Reflector,,0,,,9W - Square Trim,Square Fixed Trim With White Reflector
S-500-11-05-9W-BR18-40K-40,59897114,S,I4,LO,ST,BB,COL04,9,314,332,557,,Chrome Reflector,,0,,,9W - Square Trim,Square Fixed Trim With Chrome Reflector 
S-500-11-05-9W-BR18-40K-20,59897117,S,I5,LO,ST,AA,COL04,9,314,332,557,,Chrome Reflector,,0,,,9W - Square Trim,Square Fixed Trim With Chrome Reflector 
S-500-11-05-9W-BR27-65K-40,59897120,S,I5,HI,ST,BB,COL04,9,314,332,557,,Chrome Reflector,,0,,,9W - Square Trim,Square Fixed Trim With Chrome Reflector 
S-500-11-05-9W-BR27-65K-20,59897123,S,I2,HI,ST,AA,COL04,9,314,332,557,,Chrome Reflector,,0,,,9W - Square Trim,Square Fixed Trim With Chrome Reflector 
S-540-11-11-9W-BR18-40K-40,59897126,S,I4,LO,ST,BB,COL04,9,314,332,557,,White Reflector,,0,,,9W - White Square Trim,Square Adjustable Bulb with White Reflector
S-540-11-11-9W-BR18-40K-20,59897129,S,I3,LO,ST,AA,COL04,9,314,332,557,,White Reflector,,0,,,9W - White Square Trim,Square Adjustable Bulb with White Reflector
S-540-11-11-9W-BR27-65K-40,59897132,S,I5,HI,ST,BB,COL04,9,314,332,557,,White Reflector,,0,,,9W - White Square Trim,Square Adjustable Bulb with White Reflector
S-540-11-11-9W-BR27-65K-20,59897135,S,I4,HI,ST,AA,COL04,9,314,332,557,,White Reflector,,0,,,9W - White Square Trim,Square Adjustable Bulb with White Reflector
S-540-11-05-9W-BR18-40K-40,59897138,S,I1,LO,ST,BB,COL04,9,314,332,557,,Chrome Reflector,,0,,,9W - White Square Trim,Square Adjustable Bulb with Chrome Reflector
S-540-11-05-9W-BR18-40K-20,59897141,S,I1,LO,ST,AA,COL04,9,314,332,557,,Chrome Reflector,,0,,,9W - White Square Trim,Square Adjustable Bulb with Chrome Reflector
S-540-11-05-9W-BR27-65K-40,59897144,S,I1,HI,ST,BB,COL04,9,314,332,557,,Chrome Reflector,,0,,,9W - White Square Trim,Square Adjustable Bulb with Chrome Reflector
S-540-11-05-9W-BR27-65K-20,59897147,S,I4,HI,ST,AA,COL04,9,314,332,557,,Chrome Reflector,,0,,,9W - White Square Trim,Square Adjustable Bulb with Chrome Reflector
S-500-11-11-TL-9W-BR18-40K-40,59897150,S,I2,LO,SL,BB,COL04,9,314,332,557,,White Reflector,,0,,,9W - Square Trimless,Square Fixed Trim With White Reflector
S-500-11-11-TL-9W-BR18-40K-20,59897153,S,I3,LO,SL,AA,COL04,9,314,332,557,,White Reflector,,0,,,9W - Square Trimless,Square Fixed Trim With White Reflector
S-500-11-11-TL-9W-BR27-65K-40,59897156,S,I1,HI,SL,BB,COL04,9,314,332,557,,White Reflector,,0,,,9W - Square Trimless,Square Fixed Trim With White Reflector
S-500-11-11-TL-9W-BR27-65K-20,59897159,S,I4,HI,SL,AA,COL04,9,314,332,557,,White Reflector,,0,,,9W - Square Trimless,Square Fixed Trim With White Reflector
S-500-11-05-TL-9W-BR18-40K-40,59897162,S,I3,LO,SL,BB,COL04,9,314,332,557,,Chrome Reflector,,0,,,9W - Square Trimless,Square Fixed Trim With Chrome Reflector 
S-500-11-05-TL-9W-BR18-40K-20,59897165,S,I5,LO,SL,AA,COL04,9,314,332,557,,Chrome Reflector,,0,,,9W - Square Trimless,Square Fixed Trim With Chrome Reflector 
S-500-11-05-TL-9W-BR27-65K-40,59897168,S,I4,HI,SL,BB,COL04,9,314,332,557,,Chrome Reflector,,0,,,9W - Square Trimless,Square Fixed Trim With Chrome Reflector 
S-500-11-05-TL-9W-BR27-65K-20,59897171,S,I4,HI,SL,AA,COL04,9,314,332,557,,Chrome Reflector,,0,,,9W - Square Trimless,Square Fixed Trim With Chrome Reflector 
S-540-11-11-TL-9W-BR18-40K-40,59897174,S,I2,LO,SL,BB,COL04,9,314,332,557,,White Reflector,,0,,,9W - White Round Trimless,Square Adjustable Bulb with White Reflector
S-540-11-11-TL-9W-BR18-40K-20,59897177,S,I5,LO,SL,AA,COL04,9,314,332,557,,White Reflector,,0,,,9W - White Round Trimless,Square Adjustable Bulb with White Reflector
S-540-11-11-TL-9W-BR27-65K-40,59897180,S,I2,HI,SL,BB,COL04,9,314,332,557,,White Reflector,,0,,,9W - White Round Trimless,Square Adjustable Bulb with White Reflector
S-540-11-11-TL-9W-BR27-65K-20,59897183,S,I4,HI,SL,AA,COL04,9,314,332,557,,White Reflector,,0,,,9W - White Round Trimless,Square Adjustable Bulb with White Reflector
S-540-11-05-TL-9W-BR18-40K-40,59897186,S,I2,LO,SL,BB,COL04,9,314,332,557,,Chrome Reflector,,0,,,9W - White Round Trimless,Square Adjustable Bulb with Chrome Reflector
S-540-11-05-TL-9W-BR18-40K-20,59897189,S,I2,LO,SL,AA,COL04,9,314,332,557,,Chrome Reflector,,0,,,9W - White Round Trimless,Square Adjustable Bulb with Chrome Reflector
S-540-11-05-TL-9W-BR27-65K-40,59897192,S,I1,HI,SL,BB,COL04,9,314,332,557,,Chrome Reflector,,0,,,9W - White Round Trimless,Square Adjustable Bulb with Chrome Reflector
S-540-11-05-TL-9W-BR27-65K-20,59897195,S,I2,HI,SL,AA,COL04,9,314,332,557,,Chrome Reflector,,0,,,9W - White Round Trimless,Square Adjustable Bulb with Chrome Reflector
TB-150-11-14W-BI18-40K-20,32897015,TB,I1,LO,RT,AA,COL04,14,274,282,487,,,,0,,,14W ,White Round Trim
TB-150-11-14W-BI18-40K-40,32897018,TB,I3,LO,RT,BB,COL04,14,274,282,487,,,,0,,,14W ,White Round Trim
TB-150-11-14W-BI27-65K-20,32897021,TB,I5,HI,RT,AA,COL04,14,274,282,487,,,,0,,,14W ,White Round Trim
TB-150-11-14W-BI27-65K-40,32897024,TB,I3,HI,RT,BB,COL04,14,274,282,487,,,,0,,,14W ,White Round Trim
TB-150-22-14W-BI18-40K-20,32897027,TB,I5,LO,RT,AA,COL04,14,274,282,487,,,,0,,,14W ,Black Round Trim
TB-150-22-14W-BI18-40K-40,32897030,TB,I3,LO,RT,BB,COL04,14,274,282,487,,,,0,,,14W ,Black Round Trim
TB-150-22-14W-BI27-65K-20,32897033,TB,I3,HI,RT,AA,COL04,14,274,282,487,,,,0,,,14W ,Black Round Trim
TB-150-22-14W-BI27-65K-40,32897036,TB,I1,HI,RT,BB,COL04,14,274,282,487,,,,0,,,14W ,Black Round Trim
TB-650-11-14W-BI18-40K-20,32897039,TB,I5,LO,ST,AA,COL04,14,289,302,517,,,,0,,,14W ,White Square Trim
TB-650-11-14W-BI18-40K-40,32897042,TB,I4,LO,ST,BB,COL04,14,289,302,517,,,,0,,,14W ,White Square Trim
TB-650-11-14W-BI27-65K-20,32897045,TB,I4,HI,ST,AA,COL04,14,289,302,517,,,,0,,,14W ,White Square Trim
TB-650-11-14W-BI27-65K-40,32897048,TB,I4,HI,ST,BB,COL04,14,289,302,517,,,,0,,,14W ,White Square Trim
TB-650-22-14W-BI18-40K-20,32897099,TB,I1,LO,ST,AA,COL04,14,289,302,517,,,,0,,,14W ,Black Square Trim
TB-650-22-14W-BI18-40K-40,32897003,TB,I1,LO,ST,BB,COL04,14,289,302,517,,,,0,,,14W ,Black Square Trim
TB-650-22-14W-BI27-65K-20,32897105,TB,I1,HI,ST,AA,COL04,14,289,302,517,,,,0,,,14W ,Black Square Trim
TB-650-22-14W-BI27-65K-40,32897000,TB,I1,HI,ST,BB,COL04,14,289,302,517,,,,0,,,14W ,Black Square Trim
TB-100-11MG-14W-BI27-65K-W40,32897063,TB,I3,HI,RT,BB,COL04,14,274,277,487,,,,0,Marine Grade,Frosted Glass,Shower Trims,TB-100
TB-100-04-14W-BI27-65K-W40,32897066,TB,I1,HI,RT,BB,COL06,14,284,297,507,,,White Housing ,0,,Frosted Glass,Shower Trims,TB-101
TB-100-12BR-14W-BI27-65K-W40,32897069,TB,I2,HI,RT,BB,COL07,14,284,297,507,,,White Housing ,0,Marine Grade,Frosted Glass,Shower Trims,TB-102
TB-100-11MG-14W-BI18-40K-W40,32897072,TB,I5,LO,RT,BB,COL04,14,274,277,487,,,White Housing ,0,Marine Grade,Frosted Glass,Shower Trims,TB-103
TB-100-04-14W-BI18-40K-W40,32897075,TB,I1,LO,RT,BB,COL06,14,284,297,507,,,White Housing ,0,,Frosted Glass,Shower Trims,TB-104
TB-100-12BR-14W-BI18-40K-W40,32897078,TB,I5,LO,RT,BB,COL07,14,284,297,507,,,White Housing ,0,Marine Grade,Frosted Glass,Shower Trims,TB-105
TB-700-11MG-14W-BI27-65K-W40,32897081,TB,I1,HI,ST,BB,COL04,14,279,287,497,,,White Housing ,0,Marine Grade,Frosted Glass,Shower Trims,TB-700
TB-700-04-14W-BI27-65K-W40,32897084,TB,I4,HI,ST,BB,COL06,14,289,302,517,,,White Housing ,0,,Frosted Glass,Shower Trims,TB-701
TB-700-12BR-14W-BI27-65K-W40,32897087,TB,I1,HI,ST,BB,COL07,14,289,302,517,,,White Housing ,0,Marine Grade,Frosted Glass,Shower Trims,TB-702
TB-700-11MG-14W-BI18-40K-W40,32897090,TB,I2,LO,ST,BB,COL04,14,279,287,497,,,White Housing ,0,Marine Grade,Frosted Glass,Shower Trims,TB-703
TB-700-04-14W-BI18-40K-W40,32897093,TB,I3,LO,ST,BB,COL06,14,289,302,517,,,White Housing ,0,,Frosted Glass,Shower Trims,TB-704
TB-700-12BR-14W-BI18-40K-W40,32897096,TB,I3,LO,ST,BB,COL07,14,289,302,517,,,White Housing ,0,Marine Grade,Frosted Glass,Shower Trims,TB-705
TB-150-11-9W-BI18-40K-20,32896970,TB,I2,LO,RT,AA,COL04,9,259,267,467,,,,0,,,9W ,White Round Trim
TB-150-11-9W-BI18-40K-40,32896967,TB,I3,LO,RT,BB,COL04,9,259,267,467,,,,0,,,9W ,White Round Trim
TB-150-11-9W-BI27-65K-20,32896973,TB,I4,HI,RT,AA,COL04,9,259,267,467,,,,0,,,9W ,White Round Trim
TB-150-11-9W-BI27-65K-40,32896976,TB,I3,HI,RT,BB,COL04,9,259,267,467,,,,0,,,9W ,White Round Trim
TB-150-22-9W-BI18-40K-20,32896979,TB,I5,LO,RT,AA,COL04,9,259,267,467,,,,0,,,9W ,Black Round Trim
TB-150-22-9W-BI18-40K-40,32896982,TB,I2,LO,RT,BB,COL04,9,259,267,467,,,,0,,,9W ,Black Round Trim
TB-150-22-9W-BI27-65K-20,32896985,TB,I4,HI,RT,AA,COL04,9,259,267,467,,,,0,,,9W ,Black Round Trim
TB-150-22-9W-BI27-65K-40,32896964,TB,I3,HI,RT,BB,COL04,9,259,267,467,,,,0,,,9W ,Black Round Trim
TB-650-11-9W-BI18-40K-20,32896988,TB,I2,LO,ST,AA,COL04,9,279,287,492,,,,0,,,9W ,White Square Trim
TB-650-11-9W-BI18-40K-40,32896991,TB,I4,LO,ST,BB,COL04,9,279,287,492,,,,0,,,9W ,White Square Trim
TB-650-11-9W-BI27-65K-20,32896994,TB,I5,HI,ST,AA,COL04,9,279,287,492,,,,0,,,9W ,White Square Trim
TB-650-11-9W-BI27-65K-40,32896997,TB,I3,HI,ST,BB,COL04,9,279,287,492,,,,0,,,9W ,White Square Trim
TB-650-22-9W-BI18-40K-20,32897000,TB,I3,LO,ST,AA,COL04,9,279,287,492,,,,0,,,9W ,Black Square Trim
TB-650-22-9W-BI18-40K-40,32897003,TB,I2,LO,ST,BB,COL04,9,279,287,492,,,,0,,,9W ,Black Square Trim
TB-650-22-9W-BI27-65K-20,32897006,TB,I2,HI,ST,AA,COL04,9,279,287,492,,,,0,,,9W ,Black Square Trim
TB-650-22-9W-BI27-65K-40,32897009,TB,I2,HI,ST,BB,COL04,9,279,287,492,,,,0,,,9W ,Black Square Trim
